{
    "SourceID": "YourCoCCode",
    "SourceType": 1,
    "SourceName": "Clarity Demo System",
    "SoftwareName": "Clarity Demo System",
    "SoftwareVersion": 1.0,
    "SourceContactEmail": "your@emailhere.com",
    "SourceContactFirstName": "YourFirstName",
    "SourceContactLastName": "YourLastName"
}